1968-09-13|Great Bridge|19|Princess Anne|7
1968-09-13|Indian River|13|Churchland|6
1968-09-20|Great Bridge|12|Cradock|0
1968-09-20|Oscar Smith|20|Indian River|7
1968-09-27|Wilson|40|Indian River|13
1968-09-27|Great Bridge|14|Oscar Smith|14
1968-10-04|Indian River|12|Lake Taylor|7
1968-10-11|Great Bridge|21|Cox|0
1968-10-11|Kellam|39|Indian River|12
1968-10-18|Great Bridge|20|Churchland|0
1968-10-18|First Colonial|32|Indian River|6
1968-10-25|Wilson|40|Great Bridge|0
1968-10-25|Indian River|19|York|7
1968-11-01|Deep Creek|38|Great Bridge|19
1968-11-01|Indian River|7|Kempsville|0
1968-11-08|Great Bridge|34|Kellam|27
1968-11-08|Deep Creek|20|Indian River|13
1968-11-15|Great Bridge|40|Indian River|14
1968-11-28|Norview|26|Great Bridge|16
