1971-09-17|Wilson|36|Western Branch|6
1971-09-24|Wilson|40|Churchland|0
1971-10-01|Wilson|32|Indian River|0
1971-10-08|Wilson|26|Norview|14
1971-10-15|Wilson|42|Oscar Smith|20
1971-10-22|Wilson|52|Deep Creek|20
1971-10-29|Wilson|32|Great Bridge|0
1971-11-05|Norcom|20|Wilson|8
1971-11-12|Wilson|46|Cradock|6
1971-11-19|Wilson|60|Granby|14
1971-11-19|Hampton|20|Bethel|3
1971-11-26|Andrew Lewis|20|E.C. Glass|14
1971-11-26|Douglas Freeman|22|Petersburg|7
1971-11-26|T.C. Williams|28|Annandale|0
1971-11-26|Wilson|22|Maury|6
1971-11-26|John Yeates|28|Matoaca|0
1971-11-26|Fauquier|34|Harrisonburg|28
1971-11-26|Covington|27|Brookville|6
1971-11-26|Radford|37|Gate City|24
1971-11-26|New Kent|22|King George|6
1971-11-26|Madison|27|Fluvanna|2
1971-11-26|Chilhowie|13|Parry McCluer|6
1971-11-26|Appalachia|46|Castlewood|0
1971-12-04|Andrew Lewis|26|Douglas Freeman|21
1971-12-04|T.C. Williams|36|Wilson|14
1971-12-04|John Yeates|7|Fauquier|0
1971-12-04|Radford|14|Covington|10
1971-12-04|Madison|7|New Kent|0
1971-12-04|Appalachia|32|Chilhowie|8
1971-12-11|T.C. Williams|27|Andrew Lewis|0
1971-12-11|Radford|32|John Yeates|0
1971-12-11|Appalachia|24|Madison|0