1977-09-23|Elizabethton|3|Sullivan East|0
1977-09-23|Holston|9|Auburn|6
1977-09-23|Jonesville|14|Pound|0
1977-11-11|Hampton|10|Bethel|9
1977-11-18|Petersburg|14|George Wythe(R)|7
1977-11-18|Hampton|21|Western Branch|15
1977-11-18|Norview|14|Kellam|6
1977-11-18|James Madison|23|Falls Church|21
1977-11-18|James Robinson|12|Mount Vernon|10
1977-11-18|Gar-Field|7|Northside|3
1977-11-18|Tabb|33|Nottoway|0
1977-11-18|Spotsylvania|20|Handley|6
1977-11-18|Covington|36|Rustburg|0
1977-11-18|Onancock|13|Central|0
1977-11-18|Washington & Lee|32|West Point|6
1977-11-18|Parry McCluer|48|Fort Defiance|0
1977-11-18|R.B. Worthy|48|Shawsville|6
1977-11-18|Honaker|23|Pennington|13
1977-11-25|Douglas Freeman|7|Petersburg|3
1977-11-25|Hampton|21|Norview|0
1977-11-25|James Robinson|38|James Madison|14
1977-11-25|Gar-Field|13|George Washington|7
1977-11-25|Southampton|12|Tabb|0
1977-11-25|R.E. Lee(St)|7|Spotsylvania|6
1977-11-25|Covington|36|Martinsville|16
1977-11-25|Blacksburg|20|Gate City|7
1977-11-25|Washington & Lee|12|Onancock|6
1977-11-25|Montevideo|27|Clover Hill|14
1977-11-25|Parry McCluer|20|R.B. Worthy|12
1977-11-25|Honaker|14|Clintwood|0
1977-12-03|Hampton|7|Douglas Freeman|0
1977-12-03|Gar-Field|14|James Robinson|7
1977-12-03|Southampton|34|R.E. Lee(St)|0
1977-12-03|Blacksburg|7|Covington|6
1977-12-03|Montevideo|23|Washington & Lee|12
1977-12-03|Parry McCluer|39|Honaker|0
1977-12-10|Hampton|12|Gar-Field|7
1977-12-10|Blacksburg|16|Southampton|7
1977-12-10|Parry McCluer|33|Montevideo|12
